Retrieve and summarize bioRxiv and medRxiv preprints with a local LLM using ollama • biorecap
…
The add_prompt() function adds a prompt to each preprint that will be used to prompt the model.

pp <- pp |> add_prompt()
pp

#> # A tibble: 60 × 6
#>    source  subject        title                            url   abstract prompt
#>    <chr>   <chr>          <chr>                            <chr> <chr>    <chr> 
#>  1 bioRxiv bioinformatics MedGraphNet: Leveraging Multi-R… http… Genetic… I am …
#>  2 bioRxiv bioinformatics High-throughput bacterial aggre… http… The com… I am …
#>  3 bioRxiv bioinformatics scParadise: Tunable highly accu… http… scRNA-s… I am …
#>  4 bioRxiv bioinformatics Camera Paths, Modeling, and Ima… http… The enh… I am …
#>  5 bioRxiv bioinformatics dScaff - an automatic bioinform… http… Rapid e… I am …
#>  6 bioRxiv bioinformatics Jaeger: an accurate and fast de… http… Abstrac… I am …
#>  7 bioRxiv bioinformatics AI-Augmented R-Group Exploratio… http… Efficie… I am …
#>  8 bioRxiv bioinformatics OPLS-based Multiclass Classific… http… Multicl… I am …
#>  9 bioRxiv bioinformatics STANCE: a unified statistical m… http… A signi… I am …
#> 10 bioRxiv bioinformatics AsaruSim: a single-cell and spa… http… Motivat… I am …
#> # ℹ 50 more rows
…
The add_summary() function uses a locally running LLM available through Ollama to summarize the preprint. Let’s add the summary. Notice that we can do this all in a single pipeline. This takes a few minutes!

pp <- 
  get_preprints(subject=c("bioinformatics", "infectious_diseases")) |> 
  add_prompt() |> 
  add_summary(model="llama3.2")

Let’s take a look at the results:

pp
#> # A tibble: 60 × 7
#>    source  subject        title                    url   abstract prompt summary
#>    <chr>   <chr>          <chr>                    <chr> <chr>    <chr>  <chr>  
#>  1 bioRxiv bioinformatics MedGraphNet: Leveraging… http… Genetic… I am … MedGra…
#>  2 bioRxiv bioinformatics High-throughput bacteri… http… The com… I am … The co…
#>  3 bioRxiv bioinformatics scParadise: Tunable hig… http… scRNA-s… I am … scAdam…
#>  4 bioRxiv bioinformatics Camera Paths, Modeling,… http… The enh… I am … ArtiaX…
#>  5 bioRxiv bioinformatics dScaff - an automatic b… http… Rapid e… I am … dScaff…
#>  6 bioRxiv bioinformatics Jaeger: an accurate and… http… Abstrac… I am … Jaeger…
#>  7 bioRxiv bioinformatics AI-Augmented R-Group Ex… http… Efficie… I am … The pa…
#>  8 bioRxiv bioinformatics OPLS-based Multiclass C… http… Multicl… I am … OPLS-D…
#>  9 bioRxiv bioinformatics STANCE: a unified stati… http… A signi… I am … STANCE…
#> 10 bioRxiv bioinformatics AsaruSim: a single-cell… http… Motivat… I am … AsaruS…
#> # ℹ 50 more rows
…
