Add prompt to a data frame of preprints — add_prompt • biorecap
…
    Value

    A data frame of bioRxiv preprints with a prompt added.

    See also

    build_prompt_preprint()

    Examples

preprints <- get_preprints(subject=c("bioinformatics", "genomics"))
preprints <- add_prompt(preprints)
preprints
#> # A tibble: 60 × 5
#>    subject        title                                    url   abstract prompt
#>    <chr>          <chr>                                    <chr> <chr>    <chr> 
#>  1 bioinformatics Unsupervised domain classification of A… http… The rel… "I am…
#>  2 bioinformatics Testing and overcoming the limitations … http… Modular… "I am…
#>  3 bioinformatics Decoding multicellular niche formation … http… Accurat… "I am…
#>  4 bioinformatics Insights from Molecular Docking and Dyn… http… Alpha-s… "I am…
#>  5 bioinformatics TUSCAN: Tumor segmentation and classifi… http… The ide… "I am…
#>  6 bioinformatics Characterizing the role of exosomal miR… http… Backgro… "I am…
#>  7 bioinformatics The Lomb-Scargle periodogram-based diff… http… Motivat… "I am…
#>  8 bioinformatics Protein stability models fail to captur… http… There i… "I am…
#>  9 bioinformatics CryptoBench: Cryptic protein-ligand bin… http… Structu… "I am…
#> 10 bioinformatics haCCA: Multi-module Integrating of spat… http… Spatial… "I am…
#> # ℹ 50 more rows
…
