Create a markdown table from prepreprint summaries — tt_preprints • biorecap
…
cols
Columns to display in the resulting markdown table.

width
Vector of relative widths equal to length(cols).

    Value

    A tinytable table.

    Examples

# Use built-in example data
example_preprints
#> # A tibble: 60 × 7
#>    source  subject        title                    url   abstract prompt summary
#>    <chr>   <chr>          <chr>                    <chr> <chr>    <chr>  <chr>  
#>  1 bioRxiv bioinformatics MedGraphNet: Leveraging… http… Genetic… I am … MedGra…
#>  2 bioRxiv bioinformatics High-throughput bacteri… http… The com… I am … The co…
#>  3 bioRxiv bioinformatics scParadise: Tunable hig… http… scRNA-s… I am … scAdam…
#>  4 bioRxiv bioinformatics Camera Paths, Modeling,… http… The enh… I am … ArtiaX…
#>  5 bioRxiv bioinformatics dScaff - an automatic b… http… Rapid e… I am … dScaff…
#>  6 bioRxiv bioinformatics Jaeger: an accurate and… http… Abstrac… I am … Jaeger…
#>  7 bioRxiv bioinformatics AI-Augmented R-Group Ex… http… Efficie… I am … The pa…
#>  8 bioRxiv bioinformatics OPLS-based Multiclass C… http… Multicl… I am … OPLS-D…
#>  9 bioRxiv bioinformatics STANCE: a unified stati… http… A signi… I am … STANCE…
#> 10 bioRxiv bioinformatics AsaruSim: a single-cell… http… Motivat… I am … AsaruS…
#> # ℹ 50 more rows
…
